{
    "name": "daniel",
    "title": "Даниил",
    "chapters": [
        {
            "number": 1,
            "verses": [
                {
                    "number": 1,
                    "text": ""
                },
                {
                    "number": 2,
                    "text": ""
                },
                {
                    "number": 3,
                    "text": ""
                },
                {
                    "number": 4,
                    "text": ""
                }
            ]
        }
    ]
}