{
    "name": "ruth",
    "title": "Рут",
    "chapters": [
        {
            "number": 1,
            "verses": [
                {
                    "number": 1,
                    "text": "В дните когато съдиите съдеха, настана глад в земята. И един човек от Витлеем Юдов отиде да престои в Моавската земя, той, и жена му, и двамата му сина."
                },
                {
                    "number": 2,
                    "text": "Името на човека беше Елимелех, а името на жена му Ноемин, а имената на двамата му сина Маалон и Хелеон; те бяха ефратци от Витлеем Юдов. И дойдоха в Моавската земя и там останаха."
                },
                {
                    "number": 3,
                    "text": "И Елимелех, мъжът на Ноемин, умря; и тя остана с двамата си сина."
                },
                {
                    "number": 4,
                    "text": "И те си взеха жени моавки, на които името на едната беше Орфа, а името на другата Рут; и живяха там около десет години."
                },
                {
                    "number": 5,
                    "text": "Тогава умряха Маалон и Хелеон, и двамата, тъй че жената се лиши от двамата си сина и от мъжа си."
                },
                {
                    "number": 6,
                    "text": "След това тя стана със снахите си да се върне от Моавската земя, защото беше чула в Моавската земя, че Господ посетил людете Си и им дал хляб."
                },
                {
                    "number": 7,
                    "text": "И тъй, тя излезе от мястото, гдето беше, и двете й снахи с нея, и вървяха по пътя да се върнат в Юдовата земя."
                },
                {
                    "number": 8,
                    "text": "Сетне Ноемин каза на двете си снахи: Идете, върнете се всяка в дома на майка си. Господ да постъпва с благост към вас, както вие постъпвахте към умрелите и към мене."
                },
                {
                    "number": 9,
                    "text": "Господ да ви даде да намерите спокойствие, всяка в дома на мъжа си. Тогава ги целуна; а те плакаха с висок глас."
                },
                {
                    "number": 10,
                    "text": "И рекоха й: Не, но с тебе ще се върнем при твоите люде."
                },
                {
                    "number": 11,
                    "text": "Но Ноемин каза: Върнете се, дъщери мои, защо да дойдете с мене? Имам ли още синове в утробата си, за да ви станат мъже?"
                },
                {
                    "number": 12,
                    "text": "Върнете се, дъщери мои, идете защото остарях и не съм вече за мъж. Ако бих и рекла: Имам надежда; даже ако се омъжех тая нощ, па и родях синове,"
                },
                {
                    "number": 13,
                    "text": "вие бихте ли ги чакали догде порастат? Бихте ли се въздържали заради тях да се не омъжите? Не, дъщери мои; върнете се, понеже съм много огорчена заради вас, гдето Господната ръка се е простирала против мене."
                },
                {
                    "number": 14,
                    "text": "А като плакаха пак с висок глас, Орфа целуна свекърва си, а Рут се привърза при нея."
                },
                {
                    "number": 15,
                    "text": "Тогава рече Ноемин: Ето, етърва ти се върна при людете си и при боговете си; върни се и ти подир етърва си."
                },
                {
                    "number": 16,
                    "text": "А Рут каза: Не ме умолявай да те оставя и да не дойда подире ти; защото, гдето идеш ти, и аз ще ида, и гдето останеш, и аз ще остана; твоите люде ще бъдат мои люде, и твоят Бог мой Бог;"
                },
                {
                    "number": 17,
                    "text": "гдето умреш ти, и аз ще умра, и там ще се погреба; така да ми направи Господ, да! и повече да притури, ако друго, освен смъртта, ме разлъчи от тебе."
                },
                {
                    "number": 18,
                    "text": "И Ноемин, като видя, че тя настояваше да иде с нея, престана да й говори."
                },
                {
                    "number": 19,
                    "text": "И тъй, двете вървяха докато дойдоха във Витлеем. И когато стигнаха във Витлеем, целият град се раздвижи поради тях; и жените думаха: Това ли е Ноемин?"
                },
                {
                    "number": 20,
                    "text": "А тя им каза: Не ме наричайте Ноемин {Т.е., Благоугодност.} наричайте ме Мара {Т.е., Горест.} защото Всесилният ме твърде огорчи."
                },
                {
                    "number": 21,
                    "text": "Пълна излязох; а Господ ме доведе празна. Защо ме наричате Ноемин, тъй като Господ е заявил против мене, и Всесилният ме е оскърбил?"
                },
                {
                    "number": 22,
                    "text": "Така се върна Ноемин, и с нея снаха й Рут, моавката, която дойде от Моавската земя. Те стигнаха във Витлеем в началото на ечемичната жетва."
                }
            ]
        },
        {
            "number": 2,
            "verses": [
                {
                    "number": 1,
                    "text": "А Ноемин имаше един сродник по мъжа си, многоимотен човек, от рода на Елимелеха, на име Вооз."
                },
                {
                    "number": 2,
                    "text": "И моавката, Рут, каза на Ноемин: Да отида на нивата да събирам класове подир онзи, чието благоволение придобия. И тя й рече: Иди, дъщерьо моя."
                },
                {
                    "number": 3,
                    "text": "И тя отиде, и като стигна, събираше класове в нивата подир жетварите; и случи й се да попадне на нивата, която беше дал на Вооза, човекът от рода на Елимелеха."
                },
                {
                    "number": 4,
                    "text": "И, ето, Вооз дойде от Витлеем та рече на жетварите: Господ с вас! И те му отговориха: Господ да те благослови!"
                },
                {
                    "number": 5,
                    "text": "Тогава Вооз рече на слугата си, настойника на жетварите: Чия е тая млада жена?"
                },
                {
                    "number": 6,
                    "text": "И слугата, настойникът на жетварите, рече в отговор: Тая млада жена е моавката, която се върна с Ноемин от Моавската земя;"
                },
                {
                    "number": 7,
                    "text": "и тя рече: Да бера, моля, класове, и да събера нещо между снопите подир жетварите. И тъй тя дойде та стоя от сутринта до сега, само че си почина малко в къщи."
                },
                {
                    "number": 8,
                    "text": "Тогава Вооз рече на Рут: Чуеш ли, дъщерьо моя? не ходи да събираш класове на друга нива, и да си не отидеш от тук, но стой тук при момичетата ми."
                },
                {
                    "number": 9,
                    "text": "Нека очите ти бъдат в нивата, гдето ще жънат, и ходи подир тях; ето, аз заръчах на момчетата да се не досягат до тебе; и когато си жадна, иди при съдовете та пий от онова, което момчетата са налели."
                },
                {
                    "number": 10,
                    "text": "И тя падна на лице та се поклони до земята, и рече му: Как придобих аз твоето благоволение, та да ме пригледаш, като съм чужденка?"
                },
                {
                    "number": 11,
                    "text": "А Вооз в отговор й рече: Каза ми се напълно всичко, що си сторила на свекърва си подир смъртта на мъжа си, и как си оставила баща си и майка си и родината си, та си дошла между люде, които по-преди не си познавала."
                },
                {
                    "number": 12,
                    "text": "Господ да ти отплати за делото ти, и пълна награда да ти се даде от Господа Израилевия Бог, под Чиито крила си дошла да се подслониш."
                },
                {
                    "number": 13,
                    "text": "И тя рече: Да придобия твоето благоволение, господарю мой; понеже ти ме утеши и понеже говори благосклонно на слугинята си, ако и да не съм като някоя от твоите слугини."
                },
                {
                    "number": 14,
                    "text": "И когато настана времето за ядене, Вооз й рече: Дойди тука, та яж от хляба, и натопи залъка си в оцета. Тя, прочее, седна до жетварите; а той й подаде пържена пшеница, та яде и се насити и остави нещо."
                },
                {
                    "number": 15,
                    "text": "А като стана да бере класове, Вооз заповяда на момчетата си, като каза: И между снопите нека събира класове; не я мъмрете;"
                },
                {
                    "number": 16,
                    "text": "и даже изваждайте нещо за нея от ръкойките и оставяйте го, и нека го събира без да й забранявате."
                },
                {
                    "number": 17,
                    "text": "Така тя береше класове в нивата до вечерта; па очука събраното, и то беше около една ефа ечемик."
                },
                {
                    "number": 18,
                    "text": "И взе това та влезе в града, и свекърва й видя колко класове бе събрала; и Рут извади та й даде онова, което беше оставила след като се бе наситила."
                },
                {
                    "number": 19,
                    "text": "И свекърва й рече: Где събира днес класове? и где работи? Благословен да бъде оня, който те пригледа. И тя яви на свекърва си в чия нива бе работила, като каза: Името на човека, у когото работих днес, е Вооз."
                },
                {
                    "number": 20,
                    "text": "И Ноемин рече на снаха си: Благословен от Господа оня, който не лиши от милостта си ни живите, ни умрелите. Рече й още Ноемин: Тоя човек е от нашия род, близък нам сродник."
                },
                {
                    "number": 21,
                    "text": "И Рут моавката каза: При това, той ми рече: Да не се делиш от момчетата ми докато не свършат цялата ми жетва."
                },
                {
                    "number": 22,
                    "text": "И Ноемин рече на снаха си Рут: Добре е, дъщерьо моя, да излизаш с неговите момичета, и да те не срещат в друга нива."
                },
                {
                    "number": 23,
                    "text": "И така, тя се привърза при момичетата на Вооза, за да бере класове догде се свърши ечемичната жетва и пшеничната жетва; и седеше със свекърва си."
                }
            ]
        },
        {
            "number": 3,
            "verses": [
                {
                    "number": 1,
                    "text": "След това, свекърва й Ноемин й рече: Дъщерьо моя, да не потърся ли спокойствие за тебе та да благоденствуваш?"
                },
                {
                    "number": 2,
                    "text": "И сега, не е ли от нашия род Вооз, с чиито момичета беше ти? Ето, тая нощ той вее ечемика на гумното."
                },
                {
                    "number": 3,
                    "text": "Умий се, прочее, и помажи се, и облечи се с дрехите си и слез на гумното; но да се не покажеш на човека, догде не е свършил яденето и пиенето си."
                },
                {
                    "number": 4,
                    "text": "И като си ляга, забележи мястото гдето ляга, и иди та подигни покривката из към нозете му и легни; и той ще ти каже що трябва да направиш."
                },
                {
                    "number": 5,
                    "text": "А тя й рече: Всичко, що ми казваш, ще сторя."
                },
                {
                    "number": 6,
                    "text": "И тъй слезе на гумното, та стори всичко, що й заповяда свекърва й."
                },
                {
                    "number": 7,
                    "text": "А Вооз, като яде и пи и сърцето му се развесели, отиде да си легне край купа ечемик; а тя дойде тихо та подигна покривката от нозете му и легна."
                },
                {
                    "number": 8,
                    "text": "И около среднощ човекът се стресна и обърна; и, ето, жена лежеше при нозете му."
                },
                {
                    "number": 9,
                    "text": "И рече: Коя си ти? И тя отговори: Аз съм слугинята ти Рут; простри, прочее, полата си над слугинята си, защото си ми близък сродник."
                },
                {
                    "number": 10,
                    "text": "А той каза: Благословена да си от Господа, дъщерьо; тая последна доброта, която си показала, е по-голяма от предишната, гдето ти не отиде след млади, били те сиромаси или богати."
                },
                {
                    "number": 11,
                    "text": "И сега, дъщерьо, не бой се; аз ще сторя за тебе всичко що казваш; защото целият град на людете ми знае, че си добродетелна жена."
                },
                {
                    "number": 12,
                    "text": "И сега, вярно е, че аз съм близък сродник; има, обаче, друг сродник по-близък от мене."
                },
                {
                    "number": 13,
                    "text": "Остани тая нощ и утре, ако иска той да изпълни към тебе длъжността на сродник, добре, нека я изпълни; но, ако не иска да изпълни към тебе длъжността на сродник, тогава заклевам се в живота на Господа, аз ще изпълня тая длъжност към тебе. Пренощувай тук."
                },
                {
                    "number": 14,
                    "text": "И тя лежа при нозете му до сутринта, и стана преди да може човек да разпознава човека, защото той рече: Нека не се знае, че жена е дохождала на гумното."
                },
                {
                    "number": 15,
                    "text": "Рече още: Донеси покривалото, което е върху тебе, и дръж го. И като го държеше, той премери шест мери ечемик, та го натовари на нея; и тя си отиде в града."
                },
                {
                    "number": 16,
                    "text": "И като дойде при свекърва си, тя й каза: Що ти стана, дъщерьо моя. И тя й разправи всичко, що й стори човекът."
                },
                {
                    "number": 17,
                    "text": "Каза още: Даде ми тия шест мери ечемик, защото ми рече: Да не идеш празна при свекърва си."
                },
                {
                    "number": 18,
                    "text": "А тя рече: Седни, дъщерьо моя, догде видиш как ще се свърши работата; защото човекът няма да се спре, докато не свърши работата още днес."
                }
            ]
        },
        {
            "number": 4,
            "verses": [
                {
                    "number": 1,
                    "text": "И Вооз възлезе на портата и седна там; и, ето, минаваше близкият сродник, за когото беше говорил Вооз. И рече: Господине, свърни, седни тук. И той свърна и седна."
                },
                {
                    "number": 2,
                    "text": "Тогава Вооз събра десет мъже от градските старейшини и рече: Седнете тук. И те седнаха."
                },
                {
                    "number": 3,
                    "text": "После рече на сродника: Ноемин, която се върна от Моавската земя, продава нивата, дела, който принадлежеше на брата ни Елимелеха;"
                },
                {
                    "number": 4,
                    "text": "а аз рекох да ти известя и да ти кажа: Купи го пред седящите тука, пред старейшините на людете ми. Ако щеш да го откупиш като сродник, откупи го; но, ако не щеш да го откупиш, кажи ми, за да зная; защото освен тебе, няма друг да го откупи, като сродник; и аз съм подир тебе. И той рече: Аз ще го откупя."
                },
                {
                    "number": 5,
                    "text": "И рече Вооз: В деня, когато купиш нивата от ръката на Ноемин, трябва да я купиш и от моавката Рут, жена на умрелия, за да възстановиш името на умрелия над наследството му."
                },
                {
                    "number": 6,
                    "text": "Тогава сродникът рече: Не мога да изпълня длъжността на сродник, да не би да напакостя на своето си наследство; ти приеми върху себе си моето право да откупя, защото не мога да откупя нивата."
                },
                {
                    "number": 7,
                    "text": "А в старо време, за да се утвърди всяко дело по откупване и размяна в Израиля, ето що беше обичаят: човекът изуваше обувката си, та я даваше на ближния си; и така се свидетелствуваше в Израиля."
                },
                {
                    "number": 8,
                    "text": "За това, сродникът като каза на Вооза: Купи го ти за себе си, изу си обувката."
                },
                {
                    "number": 9,
                    "text": "Тогава Вооз каза на старейшините и на всичките люде: Днес сте свидетели, че купувам от ръката на Ноемин всичко, що беше Елимелехово и всичко що беше Хелеоново и Маалоново."
                },
                {
                    "number": 10,
                    "text": "А още и моавката Рут Маалоновата жена, придобих за жена, за да възстановя името на умрелия над наследството му, за да се не изличи името на умрелия измежду братята му и из града на обитаването му; вие сте свидетели днес."
                },
                {
                    "number": 11,
                    "text": "И всичките люде, които бяха в портата, и старейшините рекоха: Свидетели сме. Господ да направи жената, която влиза в дома ти, като Рахил и като Лия, двете, които са съградили Израилевия дом; и да станеш силен в Ефрата, и да бъдеш знаменит във Витлеем;"
                },
                {
                    "number": 12,
                    "text": "и от потомството, което Господ ще ти даде от тая млада жена, нека бъде домът ти като дома на Фареса, когото Тамар роди на Юда."
                },
                {
                    "number": 13,
                    "text": "И така, Вооз взе Рут, и тя му стана жена; и като влезе при нея, Господ й даде зачатие, и тя роди син."
                },
                {
                    "number": 14,
                    "text": "И жените казаха на Ноемин: Благословен Господ, Който днес не те остави без сродник; нека бъде прочуто Името Му в Израиля."
                },
                {
                    "number": 15,
                    "text": "Тоя син ще ти бъде обнова на живота и прехрана в старините ти; защото го роди снаха ти, която те обича, която е за тебе по-желателна от седем сина."
                },
                {
                    "number": 16,
                    "text": "И Ноемин взе детето и тури го в пазухата си, и стана му кърмилница."
                },
                {
                    "number": 17,
                    "text": "И съседките му дадоха име казвайки: Син се роди на Ноемин. И нарекоха го Овид; той е баща на Есея, Давидовия баща."
                },
                {
                    "number": 18,
                    "text": "И ето, Фаресовото родословие: Фарес роди Есрона,"
                },
                {
                    "number": 19,
                    "text": "Есрон роди Арама, Арам роди Аминадава,"
                },
                {
                    "number": 20,
                    "text": "Аминадав роди Наасона, Наасон роди Салмона,"
                },
                {
                    "number": 21,
                    "text": "Салмон роди Вооза, Вооз роди Овида,"
                },
                {
                    "number": 22,
                    "text": "Овид роди Есея, а Есей роди Давида."
                }
            ]
        }
    ]
}